{
  "swagger" : "2.0",
  "info" : {
    "version" : "0.0.1",
    "title" : "Event App"
  },
  "host" : "localhost:10010",
  "basePath" : "/api/v1",
  "schemes" : [ "http", "https" ],
  "consumes" : [ "application/json" ],
  "produces" : [ "application/json" ],
  "paths" : {
    "/events" : {
      "get" : {
        "description" : "Provide list of events, filtered out by theme or nationwide. The list supports paging. ",
        "operationId" : "getEvents",
        "parameters" : [ {
          "name" : "theme",
          "in" : "query",
          "description" : "The name of the event to filtered out events",
          "required" : false,
          "type" : "string"
        }, {
          "name" : "place",
          "in" : "query",
          "description" : "Place of events",
          "required" : false,
          "type" : "string"
        }, {
          "name" : "date",
          "in" : "query",
          "description" : "date of ot the events",
          "required" : false,
          "type" : "string",
          "format" : "full-date"
        }, {
          "name" : "price",
          "in" : "query",
          "description" : "Price of the event",
          "required" : false,
          "type" : "number",
          "format" : "float"
        }, {
          "name" : "currency",
          "in" : "query",
          "description" : "Preferred currency to use for price conversion, use [ISO 4217](http://en.wikipedia.org/wiki/ISO_4217) as currency code",
          "required" : false,
          "type" : "string"
        } ],
        "responses" : {
          "200" : {
            "description" : "A event",
            "schema" : {
              "type" : "array",
              "items" : {
                "$ref" : "#/definitions/Event"
              }
            }
          },
          "404" : {
            "description" : "The Events does not exist"
          },
          "500" : {
            "description" : "An unexpected error",
            "schema" : {
              "$ref" : "#/definitions/Error"
            }
          }
        }
      },
      "x-swagger-router-controller" : "get_events"
    },
    "/events/{eventId}" : {
      "get" : {
        "summary" : "Gets a certain event",
        "description" : "Returns a single event for its ID",
        "operationId" : "getEvent",
        "parameters" : [ {
          "name" : "eventId",
          "in" : "path",
          "description" : "The event's id",
          "required" : true,
          "type" : "string"
        }, {
          "name" : "currency",
          "in" : "query",
          "description" : "Preferred currency to use for price conversion, use [ISO 4217](http://en.wikipedia.org/wiki/ISO_4217) as currency code",
          "required" : false,
          "type" : "string"
        } ],
        "responses" : {
          "200" : {
            "description" : "A event",
            "schema" : {
              "$ref" : "#/definitions/Event"
            }
          },
          "404" : {
            "description" : "The Events does not exist"
          },
          "500" : {
            "description" : "An unexpected error occured.",
            "schema" : {
              "$ref" : "#/definitions/Error"
            }
          }
        }
      },
      "x-swagger-router-controller" : "get_event"
    },
    "/swagger" : {
      "x-swagger-pipe" : "swagger_raw"
    }
  },
  "definitions" : {
    "Event" : {
      "type" : "object",
      "properties" : {
        "id" : {
          "type" : "string",
          "description" : "Unique identifier of the event"
        },
        "name" : {
          "type" : "string",
          "description" : "Short name of the event to be appeared as title"
        },
        "description" : {
          "type" : "string",
          "description" : "Full description of the event with appropriate details"
        },
        "image" : {
          "type" : "string",
          "description" : "Image URL representing the event."
        }
      }
    },
    "Error" : {
      "required" : [ "message" ],
      "properties" : {
        "message" : {
          "type" : "string"
        }
      }
    }
  },
  "parameters" : {
    "currency" : {
      "name" : "currency",
      "in" : "query",
      "description" : "Preferred currency to use for price conversion, use [ISO 4217](http://en.wikipedia.org/wiki/ISO_4217) as currency code",
      "required" : false,
      "type" : "string"
    }
  },
  "responses" : {
    "Standard500ErrorResponse" : {
      "description" : "An unexpected error occured.",
      "schema" : {
        "$ref" : "#/definitions/Error"
      }
    }
  }
}